^C:\USERS\GALIT.DESKTOP-0KJ3ODL\DOWNLOADS\VISUAL STUDIO\LUNACH1_10\COMMON\D3DAPP.CPP
/c /ZI /nologo /W3 /WX- /Od /Oy- /D WIN32 /D _DEBUG /D _WINDOWS /D _UNICODE /D UNICODE /Gm /EHsc /RTC1 /MDd /GS /fp:precise /Zc:wchar_t /Zc:forScope /Fo"DEBUG\\" /Fd"DEBUG\VC120.PDB" /Gd /TP /analyze- C:\USERS\GALIT.DESKTOP-0KJ3ODL\DOWNLOADS\VISUAL STUDIO\LUNACH1_10\COMMON\D3DAPP.CPP
^C:\USERS\GALIT.DESKTOP-0KJ3ODL\DOWNLOADS\VISUAL STUDIO\LUNACH1_10\COMMON\D3DUTIL.CPP
/c /ZI /nologo /W3 /WX- /Od /Oy- /D WIN32 /D _DEBUG /D _WINDOWS /D _UNICODE /D UNICODE /Gm /EHsc /RTC1 /MDd /GS /fp:precise /Zc:wchar_t /Zc:forScope /Fo"DEBUG\\" /Fd"DEBUG\VC120.PDB" /Gd /TP /analyze- C:\USERS\GALIT.DESKTOP-0KJ3ODL\DOWNLOADS\VISUAL STUDIO\LUNACH1_10\COMMON\D3DUTIL.CPP
^C:\USERS\GALIT.DESKTOP-0KJ3ODL\DOWNLOADS\VISUAL STUDIO\LUNACH1_10\COMMON\GAMETIMER.CPP
/c /ZI /nologo /W3 /WX- /Od /Oy- /D WIN32 /D _DEBUG /D _WINDOWS /D _UNICODE /D UNICODE /Gm /EHsc /RTC1 /MDd /GS /fp:precise /Zc:wchar_t /Zc:forScope /Fo"DEBUG\\" /Fd"DEBUG\VC120.PDB" /Gd /TP /analyze- C:\USERS\GALIT.DESKTOP-0KJ3ODL\DOWNLOADS\VISUAL STUDIO\LUNACH1_10\COMMON\GAMETIMER.CPP
^C:\USERS\GALIT.DESKTOP-0KJ3ODL\DOWNLOADS\VISUAL STUDIO\LUNACH1_10\COMMON\GEOMETRYGENERATOR.CPP
/c /ZI /nologo /W3 /WX- /Od /Oy- /D WIN32 /D _DEBUG /D _WINDOWS /D _UNICODE /D UNICODE /Gm /EHsc /RTC1 /MDd /GS /fp:precise /Zc:wchar_t /Zc:forScope /Fo"DEBUG\\" /Fd"DEBUG\VC120.PDB" /Gd /TP /analyze- C:\USERS\GALIT.DESKTOP-0KJ3ODL\DOWNLOADS\VISUAL STUDIO\LUNACH1_10\COMMON\GEOMETRYGENERATOR.CPP
^C:\USERS\GALIT.DESKTOP-0KJ3ODL\DOWNLOADS\VISUAL STUDIO\LUNACH1_10\COMMON\LIGHTHELPER.CPP
/c /ZI /nologo /W3 /WX- /Od /Oy- /D WIN32 /D _DEBUG /D _WINDOWS /D _UNICODE /D UNICODE /Gm /EHsc /RTC1 /MDd /GS /fp:precise /Zc:wchar_t /Zc:forScope /Fo"DEBUG\\" /Fd"DEBUG\VC120.PDB" /Gd /TP /analyze- C:\USERS\GALIT.DESKTOP-0KJ3ODL\DOWNLOADS\VISUAL STUDIO\LUNACH1_10\COMMON\LIGHTHELPER.CPP
^C:\USERS\GALIT.DESKTOP-0KJ3ODL\DOWNLOADS\VISUAL STUDIO\LUNACH1_10\COMMON\MATHHELPER.CPP
/c /ZI /nologo /W3 /WX- /Od /Oy- /D WIN32 /D _DEBUG /D _WINDOWS /D _UNICODE /D UNICODE /Gm /EHsc /RTC1 /MDd /GS /fp:precise /Zc:wchar_t /Zc:forScope /Fo"DEBUG\\" /Fd"DEBUG\VC120.PDB" /Gd /TP /analyze- C:\USERS\GALIT.DESKTOP-0KJ3ODL\DOWNLOADS\VISUAL STUDIO\LUNACH1_10\COMMON\MATHHELPER.CPP
^C:\USERS\GALIT.DESKTOP-0KJ3ODL\DOWNLOADS\VISUAL STUDIO\LUNACH1_10\COMMON\WAVES.CPP
/c /ZI /nologo /W3 /WX- /Od /Oy- /D WIN32 /D _DEBUG /D _WINDOWS /D _UNICODE /D UNICODE /Gm /EHsc /RTC1 /MDd /GS /fp:precise /Zc:wchar_t /Zc:forScope /Fo"DEBUG\\" /Fd"DEBUG\VC120.PDB" /Gd /TP /analyze- C:\USERS\GALIT.DESKTOP-0KJ3ODL\DOWNLOADS\VISUAL STUDIO\LUNACH1_10\COMMON\WAVES.CPP
^C:\USERS\GALIT.DESKTOP-0KJ3ODL\DOWNLOADS\VISUAL STUDIO\LUNACH1_10\CHAPTER 10 STENCILING\MIRROR\EFFECTS.CPP
/c /ZI /nologo /W3 /WX- /Od /Oy- /D WIN32 /D _DEBUG /D _WINDOWS /D _UNICODE /D UNICODE /Gm /EHsc /RTC1 /MDd /GS /fp:precise /Zc:wchar_t /Zc:forScope /Fo"DEBUG\\" /Fd"DEBUG\VC120.PDB" /Gd /TP /analyze- C:\USERS\GALIT.DESKTOP-0KJ3ODL\DOWNLOADS\VISUAL STUDIO\LUNACH1_10\CHAPTER 10 STENCILING\MIRROR\EFFECTS.CPP
^C:\USERS\GALIT.DESKTOP-0KJ3ODL\DOWNLOADS\VISUAL STUDIO\LUNACH1_10\CHAPTER 10 STENCILING\MIRROR\MIRRORDEMO.CPP
/c /ZI /nologo /W3 /WX- /Od /Oy- /D WIN32 /D _DEBUG /D _WINDOWS /D _UNICODE /D UNICODE /Gm /EHsc /RTC1 /MDd /GS /fp:precise /Zc:wchar_t /Zc:forScope /Fo"DEBUG\\" /Fd"DEBUG\VC120.PDB" /Gd /TP /analyze- C:\USERS\GALIT.DESKTOP-0KJ3ODL\DOWNLOADS\VISUAL STUDIO\LUNACH1_10\CHAPTER 10 STENCILING\MIRROR\MIRRORDEMO.CPP
^C:\USERS\GALIT.DESKTOP-0KJ3ODL\DOWNLOADS\VISUAL STUDIO\LUNACH1_10\CHAPTER 10 STENCILING\MIRROR\RENDERSTATES.CPP
/c /ZI /nologo /W3 /WX- /Od /Oy- /D WIN32 /D _DEBUG /D _WINDOWS /D _UNICODE /D UNICODE /Gm /EHsc /RTC1 /MDd /GS /fp:precise /Zc:wchar_t /Zc:forScope /Fo"DEBUG\\" /Fd"DEBUG\VC120.PDB" /Gd /TP /analyze- C:\USERS\GALIT.DESKTOP-0KJ3ODL\DOWNLOADS\VISUAL STUDIO\LUNACH1_10\CHAPTER 10 STENCILING\MIRROR\RENDERSTATES.CPP
^C:\USERS\GALIT.DESKTOP-0KJ3ODL\DOWNLOADS\VISUAL STUDIO\LUNACH1_10\CHAPTER 10 STENCILING\MIRROR\VERTEX.CPP
/c /ZI /nologo /W3 /WX- /Od /Oy- /D WIN32 /D _DEBUG /D _WINDOWS /D _UNICODE /D UNICODE /Gm /EHsc /RTC1 /MDd /GS /fp:precise /Zc:wchar_t /Zc:forScope /Fo"DEBUG\\" /Fd"DEBUG\VC120.PDB" /Gd /TP /analyze- C:\USERS\GALIT.DESKTOP-0KJ3ODL\DOWNLOADS\VISUAL STUDIO\LUNACH1_10\CHAPTER 10 STENCILING\MIRROR\VERTEX.CPP
