^C:\USERS\GALIT.DESKTOP-0KJ3ODL\DOWNLOADS\VISUAL STUDIO\LUNACH1_10\CHAPTER 7 LIGHTING\LIGHTING\DEBUG\D3DAPP.OBJ|C:\USERS\GALIT.DESKTOP-0KJ3ODL\DOWNLOADS\VISUAL STUDIO\LUNACH1_10\CHAPTER 7 LIGHTING\LIGHTING\DEBUG\D3DUTIL.OBJ|C:\USERS\GALIT.DESKTOP-0KJ3ODL\DOWNLOADS\VISUAL STUDIO\LUNACH1_10\CHAPTER 7 LIGHTING\LIGHTING\DEBUG\GAMETIMER.OBJ|C:\USERS\GALIT.DESKTOP-0KJ3ODL\DOWNLOADS\VISUAL STUDIO\LUNACH1_10\CHAPTER 7 LIGHTING\LIGHTING\DEBUG\GEOMETRYGENERATOR.OBJ|C:\USERS\GALIT.DESKTOP-0KJ3ODL\DOWNLOADS\VISUAL STUDIO\LUNACH1_10\CHAPTER 7 LIGHTING\LIGHTING\DEBUG\LIGHTHELPER.OBJ|C:\USERS\GALIT.DESKTOP-0KJ3ODL\DOWNLOADS\VISUAL STUDIO\LUNACH1_10\CHAPTER 7 LIGHTING\LIGHTING\DEBUG\LIGHTINGDEMO.OBJ|C:\USERS\GALIT.DESKTOP-0KJ3ODL\DOWNLOADS\VISUAL STUDIO\LUNACH1_10\CHAPTER 7 LIGHTING\LIGHTING\DEBUG\MATHHELPER.OBJ|C:\USERS\GALIT.DESKTOP-0KJ3ODL\DOWNLOADS\VISUAL STUDIO\LUNACH1_10\CHAPTER 7 LIGHTING\LIGHTING\DEBUG\WAVES.OBJ
/OUT:"C:\USERS\GALIT.DESKTOP-0KJ3ODL\DOWNLOADS\VISUAL STUDIO\LUNACH1_10\DEBUG\ASSIGNMENT 4 LIGHTING.EXE" /INCREMENTAL /NOLOGO /LIBPATH:..\..\Common d3d11.lib d3dx11d.lib D3DCompiler.lib Effects11d.lib dxerr.lib dxgi.lib dxguid.lib kernel32.lib user32.lib gdi32.lib winspool.lib comdlg32.lib advapi32.lib shell32.lib ole32.lib oleaut32.lib uuid.lib odbc32.lib odbccp32.lib /MANIFEST /MANIFESTUAC:"level='asInvoker' uiAccess='false'" /manifest:embed /DEBUG /PDB:"C:\USERS\GALIT.DESKTOP-0KJ3ODL\DOWNLOADS\VISUAL STUDIO\LUNACH1_10\DEBUG\ASSIGNMENT 4 LIGHTING.PDB" /SUBSYSTEM:WINDOWS /TLBID:1 /DYNAMICBASE /NXCOMPAT /IMPLIB:"C:\USERS\GALIT.DESKTOP-0KJ3ODL\DOWNLOADS\VISUAL STUDIO\LUNACH1_10\DEBUG\ASSIGNMENT 4 LIGHTING.LIB" /MACHINE:X86 DEBUG\D3DAPP.OBJDEBUG\D3DUTIL.OBJDEBUG\GAMETIMER.OBJDEBUG\GEOMETRYGENERATOR.OBJDEBUG\LIGHTHELPER.OBJDEBUG\MATHHELPER.OBJDEBUG\WAVES.OBJDEBUG\LIGHTINGDEMO.OBJ
^C:\USERS\GALIT.DESKTOP-0KJ3ODL\DOWNLOADS\VISUAL STUDIO\GALIT RAHIM AGP\CHAPTER 7 LIGHTING\LIGHTING\DEBUG\D3DAPP.OBJ|C:\USERS\GALIT.DESKTOP-0KJ3ODL\DOWNLOADS\VISUAL STUDIO\GALIT RAHIM AGP\CHAPTER 7 LIGHTING\LIGHTING\DEBUG\D3DUTIL.OBJ|C:\USERS\GALIT.DESKTOP-0KJ3ODL\DOWNLOADS\VISUAL STUDIO\GALIT RAHIM AGP\CHAPTER 7 LIGHTING\LIGHTING\DEBUG\GAMETIMER.OBJ|C:\USERS\GALIT.DESKTOP-0KJ3ODL\DOWNLOADS\VISUAL STUDIO\GALIT RAHIM AGP\CHAPTER 7 LIGHTING\LIGHTING\DEBUG\GEOMETRYGENERATOR.OBJ|C:\USERS\GALIT.DESKTOP-0KJ3ODL\DOWNLOADS\VISUAL STUDIO\GALIT RAHIM AGP\CHAPTER 7 LIGHTING\LIGHTING\DEBUG\LIGHTHELPER.OBJ|C:\USERS\GALIT.DESKTOP-0KJ3ODL\DOWNLOADS\VISUAL STUDIO\GALIT RAHIM AGP\CHAPTER 7 LIGHTING\LIGHTING\DEBUG\LIGHTINGDEMO.OBJ|C:\USERS\GALIT.DESKTOP-0KJ3ODL\DOWNLOADS\VISUAL STUDIO\GALIT RAHIM AGP\CHAPTER 7 LIGHTING\LIGHTING\DEBUG\MATHHELPER.OBJ|C:\USERS\GALIT.DESKTOP-0KJ3ODL\DOWNLOADS\VISUAL STUDIO\GALIT RAHIM AGP\CHAPTER 7 LIGHTING\LIGHTING\DEBUG\WAVES.OBJ
/OUT:"C:\USERS\GALIT.DESKTOP-0KJ3ODL\DOWNLOADS\VISUAL STUDIO\GALIT RAHIM AGP\DEBUG\ASSIGNMENT 4 LIGHTING.EXE" /INCREMENTAL /NOLOGO /LIBPATH:..\..\Common d3d11.lib d3dx11d.lib D3DCompiler.lib Effects11d.lib dxerr.lib dxgi.lib dxguid.lib kernel32.lib user32.lib gdi32.lib winspool.lib comdlg32.lib advapi32.lib shell32.lib ole32.lib oleaut32.lib uuid.lib odbc32.lib odbccp32.lib /MANIFEST /MANIFESTUAC:"level='asInvoker' uiAccess='false'" /manifest:embed /DEBUG /PDB:"C:\USERS\GALIT.DESKTOP-0KJ3ODL\DOWNLOADS\VISUAL STUDIO\GALIT RAHIM AGP\DEBUG\ASSIGNMENT 4 LIGHTING.PDB" /SUBSYSTEM:WINDOWS /TLBID:1 /DYNAMICBASE /NXCOMPAT /IMPLIB:"C:\USERS\GALIT.DESKTOP-0KJ3ODL\DOWNLOADS\VISUAL STUDIO\GALIT RAHIM AGP\DEBUG\ASSIGNMENT 4 LIGHTING.LIB" /MACHINE:X86 DEBUG\D3DAPP.OBJDEBUG\D3DUTIL.OBJDEBUG\GAMETIMER.OBJDEBUG\GEOMETRYGENERATOR.OBJDEBUG\LIGHTHELPER.OBJDEBUG\MATHHELPER.OBJDEBUG\WAVES.OBJDEBUG\LIGHTINGDEMO.OBJ
^C:\USERS\GALIT.DESKTOP-0KJ3ODL\DOCUMENTS\PROJECTS\AGP\AGP\CHAPTER 7 LIGHTING\LIGHTING\DEBUG\D3DAPP.OBJ|C:\USERS\GALIT.DESKTOP-0KJ3ODL\DOCUMENTS\PROJECTS\AGP\AGP\CHAPTER 7 LIGHTING\LIGHTING\DEBUG\D3DUTIL.OBJ|C:\USERS\GALIT.DESKTOP-0KJ3ODL\DOCUMENTS\PROJECTS\AGP\AGP\CHAPTER 7 LIGHTING\LIGHTING\DEBUG\GAMETIMER.OBJ|C:\USERS\GALIT.DESKTOP-0KJ3ODL\DOCUMENTS\PROJECTS\AGP\AGP\CHAPTER 7 LIGHTING\LIGHTING\DEBUG\GEOMETRYGENERATOR.OBJ|C:\USERS\GALIT.DESKTOP-0KJ3ODL\DOCUMENTS\PROJECTS\AGP\AGP\CHAPTER 7 LIGHTING\LIGHTING\DEBUG\LIGHTHELPER.OBJ|C:\USERS\GALIT.DESKTOP-0KJ3ODL\DOCUMENTS\PROJECTS\AGP\AGP\CHAPTER 7 LIGHTING\LIGHTING\DEBUG\LIGHTINGDEMO.OBJ|C:\USERS\GALIT.DESKTOP-0KJ3ODL\DOCUMENTS\PROJECTS\AGP\AGP\CHAPTER 7 LIGHTING\LIGHTING\DEBUG\MATHHELPER.OBJ|C:\USERS\GALIT.DESKTOP-0KJ3ODL\DOCUMENTS\PROJECTS\AGP\AGP\CHAPTER 7 LIGHTING\LIGHTING\DEBUG\WAVES.OBJ
/OUT:"C:\USERS\GALIT.DESKTOP-0KJ3ODL\DOCUMENTS\PROJECTS\AGP\AGP\DEBUG\ASSIGNMENT 4 LIGHTING.EXE" /INCREMENTAL /NOLOGO /LIBPATH:..\..\Common d3d11.lib d3dx11d.lib D3DCompiler.lib Effects11d.lib dxerr.lib dxgi.lib dxguid.lib kernel32.lib user32.lib gdi32.lib winspool.lib comdlg32.lib advapi32.lib shell32.lib ole32.lib oleaut32.lib uuid.lib odbc32.lib odbccp32.lib /MANIFEST /MANIFESTUAC:"level='asInvoker' uiAccess='false'" /manifest:embed /DEBUG /PDB:"C:\USERS\GALIT.DESKTOP-0KJ3ODL\DOCUMENTS\PROJECTS\AGP\AGP\DEBUG\ASSIGNMENT 4 LIGHTING.PDB" /SUBSYSTEM:WINDOWS /TLBID:1 /DYNAMICBASE /NXCOMPAT /IMPLIB:"C:\USERS\GALIT.DESKTOP-0KJ3ODL\DOCUMENTS\PROJECTS\AGP\AGP\DEBUG\ASSIGNMENT 4 LIGHTING.LIB" /MACHINE:X86 DEBUG\D3DAPP.OBJDEBUG\D3DUTIL.OBJDEBUG\GAMETIMER.OBJDEBUG\GEOMETRYGENERATOR.OBJDEBUG\LIGHTHELPER.OBJDEBUG\MATHHELPER.OBJDEBUG\WAVES.OBJDEBUG\LIGHTINGDEMO.OBJ
