^C:\USERS\GALIT.DESKTOP-0KJ3ODL\DOCUMENTS\PROJECTS\AGP\AGP\CHAPTER 6 DRAWING IN DIRECT3D\BOX\BOXDEMO.CPP|C:\USERS\GALIT.DESKTOP-0KJ3ODL\DOCUMENTS\PROJECTS\AGP\AGP\COMMON\D3DAPP.CPP|C:\USERS\GALIT.DESKTOP-0KJ3ODL\DOCUMENTS\PROJECTS\AGP\AGP\COMMON\D3DUTIL.CPP|C:\USERS\GALIT.DESKTOP-0KJ3ODL\DOCUMENTS\PROJECTS\AGP\AGP\COMMON\GAMETIMER.CPP|C:\USERS\GALIT.DESKTOP-0KJ3ODL\DOCUMENTS\PROJECTS\AGP\AGP\COMMON\GEOMETRYGENERATOR.CPP|C:\USERS\GALIT.DESKTOP-0KJ3ODL\DOCUMENTS\PROJECTS\AGP\AGP\COMMON\MATHHELPER.CPP
C:\USERS\GALIT.DESKTOP-0KJ3ODL\DOCUMENTS\PROJECTS\AGP\AGP\CHAPTER 6 DRAWING IN DIRECT3D\BOX\DEBUG\VC120.PDB
C:\USERS\GALIT.DESKTOP-0KJ3ODL\DOCUMENTS\PROJECTS\AGP\AGP\CHAPTER 6 DRAWING IN DIRECT3D\BOX\DEBUG\VC120.IDB
C:\USERS\GALIT.DESKTOP-0KJ3ODL\DOCUMENTS\PROJECTS\AGP\AGP\CHAPTER 6 DRAWING IN DIRECT3D\BOX\DEBUG\D3DAPP.OBJ
C:\USERS\GALIT.DESKTOP-0KJ3ODL\DOCUMENTS\PROJECTS\AGP\AGP\CHAPTER 6 DRAWING IN DIRECT3D\BOX\DEBUG\D3DUTIL.OBJ
C:\USERS\GALIT.DESKTOP-0KJ3ODL\DOCUMENTS\PROJECTS\AGP\AGP\CHAPTER 6 DRAWING IN DIRECT3D\BOX\DEBUG\GAMETIMER.OBJ
C:\USERS\GALIT.DESKTOP-0KJ3ODL\DOCUMENTS\PROJECTS\AGP\AGP\CHAPTER 6 DRAWING IN DIRECT3D\BOX\DEBUG\GEOMETRYGENERATOR.OBJ
C:\USERS\GALIT.DESKTOP-0KJ3ODL\DOCUMENTS\PROJECTS\AGP\AGP\CHAPTER 6 DRAWING IN DIRECT3D\BOX\DEBUG\MATHHELPER.OBJ
C:\USERS\GALIT.DESKTOP-0KJ3ODL\DOCUMENTS\PROJECTS\AGP\AGP\CHAPTER 6 DRAWING IN DIRECT3D\BOX\DEBUG\BOXDEMO.OBJ
^C:\USERS\GALIT.DESKTOP-0KJ3ODL\DOCUMENTS\PROJECTS\AGP\AGP\COMMON\D3DAPP.CPP
C:\USERS\GALIT.DESKTOP-0KJ3ODL\DOCUMENTS\PROJECTS\AGP\AGP\CHAPTER 6 DRAWING IN DIRECT3D\BOX\DEBUG\VC120.PDB
^C:\USERS\GALIT.DESKTOP-0KJ3ODL\DOCUMENTS\PROJECTS\AGP\AGP\COMMON\D3DUTIL.CPP
C:\USERS\GALIT.DESKTOP-0KJ3ODL\DOCUMENTS\PROJECTS\AGP\AGP\CHAPTER 6 DRAWING IN DIRECT3D\BOX\DEBUG\VC120.PDB
^C:\USERS\GALIT.DESKTOP-0KJ3ODL\DOCUMENTS\PROJECTS\AGP\AGP\COMMON\GAMETIMER.CPP
C:\USERS\GALIT.DESKTOP-0KJ3ODL\DOCUMENTS\PROJECTS\AGP\AGP\CHAPTER 6 DRAWING IN DIRECT3D\BOX\DEBUG\VC120.PDB
^C:\USERS\GALIT.DESKTOP-0KJ3ODL\DOCUMENTS\PROJECTS\AGP\AGP\COMMON\GEOMETRYGENERATOR.CPP
C:\USERS\GALIT.DESKTOP-0KJ3ODL\DOCUMENTS\PROJECTS\AGP\AGP\CHAPTER 6 DRAWING IN DIRECT3D\BOX\DEBUG\VC120.PDB
^C:\USERS\GALIT.DESKTOP-0KJ3ODL\DOCUMENTS\PROJECTS\AGP\AGP\COMMON\MATHHELPER.CPP
C:\USERS\GALIT.DESKTOP-0KJ3ODL\DOCUMENTS\PROJECTS\AGP\AGP\CHAPTER 6 DRAWING IN DIRECT3D\BOX\DEBUG\VC120.PDB
^C:\USERS\GALIT.DESKTOP-0KJ3ODL\DOCUMENTS\PROJECTS\AGP\AGP\CHAPTER 6 DRAWING IN DIRECT3D\BOX\BOXDEMO.CPP
C:\USERS\GALIT.DESKTOP-0KJ3ODL\DOCUMENTS\PROJECTS\AGP\AGP\CHAPTER 6 DRAWING IN DIRECT3D\BOX\DEBUG\VC120.PDB
C:\USERS\GALIT.DESKTOP-0KJ3ODL\DOCUMENTS\PROJECTS\AGP\AGP\CHAPTER 6 DRAWING IN DIRECT3D\BOX\DEBUG\VC120.IDB
C:\USERS\GALIT.DESKTOP-0KJ3ODL\DOCUMENTS\PROJECTS\AGP\AGP\CHAPTER 6 DRAWING IN DIRECT3D\BOX\DEBUG\BOXDEMO.OBJ
