^C:\USERS\GALIT.DESKTOP-0KJ3ODL\DOCUMENTS\PROJECTS\AGP\AGP\CHAPTER 6 DRAWING IN DIRECT3D\BOX\DEBUG\BOXDEMO.OBJ|C:\USERS\GALIT.DESKTOP-0KJ3ODL\DOCUMENTS\PROJECTS\AGP\AGP\CHAPTER 6 DRAWING IN DIRECT3D\BOX\DEBUG\D3DAPP.OBJ|C:\USERS\GALIT.DESKTOP-0KJ3ODL\DOCUMENTS\PROJECTS\AGP\AGP\CHAPTER 6 DRAWING IN DIRECT3D\BOX\DEBUG\D3DUTIL.OBJ|C:\USERS\GALIT.DESKTOP-0KJ3ODL\DOCUMENTS\PROJECTS\AGP\AGP\CHAPTER 6 DRAWING IN DIRECT3D\BOX\DEBUG\GAMETIMER.OBJ|C:\USERS\GALIT.DESKTOP-0KJ3ODL\DOCUMENTS\PROJECTS\AGP\AGP\CHAPTER 6 DRAWING IN DIRECT3D\BOX\DEBUG\GEOMETRYGENERATOR.OBJ|C:\USERS\GALIT.DESKTOP-0KJ3ODL\DOCUMENTS\PROJECTS\AGP\AGP\CHAPTER 6 DRAWING IN DIRECT3D\BOX\DEBUG\MATHHELPER.OBJ
C:\USERS\GALIT.DESKTOP-0KJ3ODL\DOCUMENTS\PROJECTS\AGP\AGP\DEBUG\ASSIGNMENT 1 PRIMITIVES.ILK
C:\USERS\GALIT.DESKTOP-0KJ3ODL\DOCUMENTS\PROJECTS\AGP\AGP\DEBUG\ASSIGNMENT 1 PRIMITIVES.EXE
C:\USERS\GALIT.DESKTOP-0KJ3ODL\DOCUMENTS\PROJECTS\AGP\AGP\DEBUG\ASSIGNMENT 1 PRIMITIVES.PDB
