^C:\USERS\GALIT.DESKTOP-0KJ3ODL\DOWNLOADS\VISUAL STUDIO\LUNACH1_10\CHAPTER 8 TEXTURING\TEXTUREDHILLSANDWAVES\EFFECTS.CPP|C:\USERS\GALIT.DESKTOP-0KJ3ODL\DOWNLOADS\VISUAL STUDIO\LUNACH1_10\CHAPTER 8 TEXTURING\TEXTUREDHILLSANDWAVES\TEXTUREDHILLSANDWAVESDEMO.CPP|C:\USERS\GALIT.DESKTOP-0KJ3ODL\DOWNLOADS\VISUAL STUDIO\LUNACH1_10\CHAPTER 8 TEXTURING\TEXTUREDHILLSANDWAVES\VERTEX.CPP|C:\USERS\GALIT.DESKTOP-0KJ3ODL\DOWNLOADS\VISUAL STUDIO\LUNACH1_10\COMMON\D3DAPP.CPP|C:\USERS\GALIT.DESKTOP-0KJ3ODL\DOWNLOADS\VISUAL STUDIO\LUNACH1_10\COMMON\D3DUTIL.CPP|C:\USERS\GALIT.DESKTOP-0KJ3ODL\DOWNLOADS\VISUAL STUDIO\LUNACH1_10\COMMON\GAMETIMER.CPP|C:\USERS\GALIT.DESKTOP-0KJ3ODL\DOWNLOADS\VISUAL STUDIO\LUNACH1_10\COMMON\GEOMETRYGENERATOR.CPP|C:\USERS\GALIT.DESKTOP-0KJ3ODL\DOWNLOADS\VISUAL STUDIO\LUNACH1_10\COMMON\LIGHTHELPER.CPP|C:\USERS\GALIT.DESKTOP-0KJ3ODL\DOWNLOADS\VISUAL STUDIO\LUNACH1_10\COMMON\MATHHELPER.CPP|C:\USERS\GALIT.DESKTOP-0KJ3ODL\DOWNLOADS\VISUAL STUDIO\LUNACH1_10\COMMON\WAVES.CPP
C:\USERS\GALIT.DESKTOP-0KJ3ODL\DOWNLOADS\VISUAL STUDIO\LUNACH1_10\CHAPTER 8 TEXTURING\TEXTUREDHILLSANDWAVES\DEBUG\VC120.PDB
C:\USERS\GALIT.DESKTOP-0KJ3ODL\DOWNLOADS\VISUAL STUDIO\LUNACH1_10\CHAPTER 8 TEXTURING\TEXTUREDHILLSANDWAVES\DEBUG\VC120.IDB
C:\USERS\GALIT.DESKTOP-0KJ3ODL\DOWNLOADS\VISUAL STUDIO\LUNACH1_10\CHAPTER 8 TEXTURING\TEXTUREDHILLSANDWAVES\DEBUG\D3DAPP.OBJ
C:\USERS\GALIT.DESKTOP-0KJ3ODL\DOWNLOADS\VISUAL STUDIO\LUNACH1_10\CHAPTER 8 TEXTURING\TEXTUREDHILLSANDWAVES\DEBUG\D3DUTIL.OBJ
C:\USERS\GALIT.DESKTOP-0KJ3ODL\DOWNLOADS\VISUAL STUDIO\LUNACH1_10\CHAPTER 8 TEXTURING\TEXTUREDHILLSANDWAVES\DEBUG\GAMETIMER.OBJ
C:\USERS\GALIT.DESKTOP-0KJ3ODL\DOWNLOADS\VISUAL STUDIO\LUNACH1_10\CHAPTER 8 TEXTURING\TEXTUREDHILLSANDWAVES\DEBUG\GEOMETRYGENERATOR.OBJ
C:\USERS\GALIT.DESKTOP-0KJ3ODL\DOWNLOADS\VISUAL STUDIO\LUNACH1_10\CHAPTER 8 TEXTURING\TEXTUREDHILLSANDWAVES\DEBUG\LIGHTHELPER.OBJ
C:\USERS\GALIT.DESKTOP-0KJ3ODL\DOWNLOADS\VISUAL STUDIO\LUNACH1_10\CHAPTER 8 TEXTURING\TEXTUREDHILLSANDWAVES\DEBUG\MATHHELPER.OBJ
C:\USERS\GALIT.DESKTOP-0KJ3ODL\DOWNLOADS\VISUAL STUDIO\LUNACH1_10\CHAPTER 8 TEXTURING\TEXTUREDHILLSANDWAVES\DEBUG\WAVES.OBJ
C:\USERS\GALIT.DESKTOP-0KJ3ODL\DOWNLOADS\VISUAL STUDIO\LUNACH1_10\CHAPTER 8 TEXTURING\TEXTUREDHILLSANDWAVES\DEBUG\EFFECTS.OBJ
C:\USERS\GALIT.DESKTOP-0KJ3ODL\DOWNLOADS\VISUAL STUDIO\LUNACH1_10\CHAPTER 8 TEXTURING\TEXTUREDHILLSANDWAVES\DEBUG\TEXTUREDHILLSANDWAVESDEMO.OBJ
C:\USERS\GALIT.DESKTOP-0KJ3ODL\DOWNLOADS\VISUAL STUDIO\LUNACH1_10\CHAPTER 8 TEXTURING\TEXTUREDHILLSANDWAVES\DEBUG\VERTEX.OBJ
^C:\USERS\GALIT.DESKTOP-0KJ3ODL\DOWNLOADS\VISUAL STUDIO\LUNACH1_10\COMMON\D3DAPP.CPP
C:\USERS\GALIT.DESKTOP-0KJ3ODL\DOWNLOADS\VISUAL STUDIO\LUNACH1_10\CHAPTER 8 TEXTURING\TEXTUREDHILLSANDWAVES\DEBUG\VC120.PDB
^C:\USERS\GALIT.DESKTOP-0KJ3ODL\DOWNLOADS\VISUAL STUDIO\LUNACH1_10\COMMON\D3DUTIL.CPP
C:\USERS\GALIT.DESKTOP-0KJ3ODL\DOWNLOADS\VISUAL STUDIO\LUNACH1_10\CHAPTER 8 TEXTURING\TEXTUREDHILLSANDWAVES\DEBUG\VC120.PDB
^C:\USERS\GALIT.DESKTOP-0KJ3ODL\DOWNLOADS\VISUAL STUDIO\LUNACH1_10\COMMON\GAMETIMER.CPP
C:\USERS\GALIT.DESKTOP-0KJ3ODL\DOWNLOADS\VISUAL STUDIO\LUNACH1_10\CHAPTER 8 TEXTURING\TEXTUREDHILLSANDWAVES\DEBUG\VC120.PDB
^C:\USERS\GALIT.DESKTOP-0KJ3ODL\DOWNLOADS\VISUAL STUDIO\LUNACH1_10\COMMON\GEOMETRYGENERATOR.CPP
C:\USERS\GALIT.DESKTOP-0KJ3ODL\DOWNLOADS\VISUAL STUDIO\LUNACH1_10\CHAPTER 8 TEXTURING\TEXTUREDHILLSANDWAVES\DEBUG\VC120.PDB
^C:\USERS\GALIT.DESKTOP-0KJ3ODL\DOWNLOADS\VISUAL STUDIO\LUNACH1_10\COMMON\LIGHTHELPER.CPP
C:\USERS\GALIT.DESKTOP-0KJ3ODL\DOWNLOADS\VISUAL STUDIO\LUNACH1_10\CHAPTER 8 TEXTURING\TEXTUREDHILLSANDWAVES\DEBUG\VC120.PDB
^C:\USERS\GALIT.DESKTOP-0KJ3ODL\DOWNLOADS\VISUAL STUDIO\LUNACH1_10\COMMON\MATHHELPER.CPP
C:\USERS\GALIT.DESKTOP-0KJ3ODL\DOWNLOADS\VISUAL STUDIO\LUNACH1_10\CHAPTER 8 TEXTURING\TEXTUREDHILLSANDWAVES\DEBUG\VC120.PDB
^C:\USERS\GALIT.DESKTOP-0KJ3ODL\DOWNLOADS\VISUAL STUDIO\LUNACH1_10\COMMON\WAVES.CPP
C:\USERS\GALIT.DESKTOP-0KJ3ODL\DOWNLOADS\VISUAL STUDIO\LUNACH1_10\CHAPTER 8 TEXTURING\TEXTUREDHILLSANDWAVES\DEBUG\VC120.PDB
^C:\USERS\GALIT.DESKTOP-0KJ3ODL\DOWNLOADS\VISUAL STUDIO\LUNACH1_10\CHAPTER 8 TEXTURING\TEXTUREDHILLSANDWAVES\EFFECTS.CPP
C:\USERS\GALIT.DESKTOP-0KJ3ODL\DOWNLOADS\VISUAL STUDIO\LUNACH1_10\CHAPTER 8 TEXTURING\TEXTUREDHILLSANDWAVES\DEBUG\VC120.PDB
^C:\USERS\GALIT.DESKTOP-0KJ3ODL\DOWNLOADS\VISUAL STUDIO\LUNACH1_10\CHAPTER 8 TEXTURING\TEXTUREDHILLSANDWAVES\TEXTUREDHILLSANDWAVESDEMO.CPP
C:\USERS\GALIT.DESKTOP-0KJ3ODL\DOWNLOADS\VISUAL STUDIO\LUNACH1_10\CHAPTER 8 TEXTURING\TEXTUREDHILLSANDWAVES\DEBUG\VC120.PDB
^C:\USERS\GALIT.DESKTOP-0KJ3ODL\DOWNLOADS\VISUAL STUDIO\LUNACH1_10\CHAPTER 8 TEXTURING\TEXTUREDHILLSANDWAVES\VERTEX.CPP
C:\USERS\GALIT.DESKTOP-0KJ3ODL\DOWNLOADS\VISUAL STUDIO\LUNACH1_10\CHAPTER 8 TEXTURING\TEXTUREDHILLSANDWAVES\DEBUG\VC120.PDB
