^C:\USERS\GALIT.DESKTOP-0KJ3ODL\DOCUMENTS\PROJECTS\AGP\AGP\COMMON\D3DAPP.CPP
/c /ZI /nologo /W3 /WX- /Od /Oy- /D WIN32 /D _DEBUG /D _WINDOWS /D _UNICODE /D UNICODE /Gm /EHsc /RTC1 /MDd /GS /fp:precise /Zc:wchar_t /Zc:forScope /Fo"DEBUG\\" /Fd"DEBUG\VC120.PDB" /Gd /TP /analyze- C:\USERS\GALIT.DESKTOP-0KJ3ODL\DOCUMENTS\PROJECTS\AGP\AGP\COMMON\D3DAPP.CPP
^C:\USERS\GALIT.DESKTOP-0KJ3ODL\DOCUMENTS\PROJECTS\AGP\AGP\COMMON\D3DUTIL.CPP
/c /ZI /nologo /W3 /WX- /Od /Oy- /D WIN32 /D _DEBUG /D _WINDOWS /D _UNICODE /D UNICODE /Gm /EHsc /RTC1 /MDd /GS /fp:precise /Zc:wchar_t /Zc:forScope /Fo"DEBUG\\" /Fd"DEBUG\VC120.PDB" /Gd /TP /analyze- C:\USERS\GALIT.DESKTOP-0KJ3ODL\DOCUMENTS\PROJECTS\AGP\AGP\COMMON\D3DUTIL.CPP
^C:\USERS\GALIT.DESKTOP-0KJ3ODL\DOCUMENTS\PROJECTS\AGP\AGP\COMMON\GAMETIMER.CPP
/c /ZI /nologo /W3 /WX- /Od /Oy- /D WIN32 /D _DEBUG /D _WINDOWS /D _UNICODE /D UNICODE /Gm /EHsc /RTC1 /MDd /GS /fp:precise /Zc:wchar_t /Zc:forScope /Fo"DEBUG\\" /Fd"DEBUG\VC120.PDB" /Gd /TP /analyze- C:\USERS\GALIT.DESKTOP-0KJ3ODL\DOCUMENTS\PROJECTS\AGP\AGP\COMMON\GAMETIMER.CPP
^C:\USERS\GALIT.DESKTOP-0KJ3ODL\DOCUMENTS\PROJECTS\AGP\AGP\COMMON\GEOMETRYGENERATOR.CPP
/c /ZI /nologo /W3 /WX- /Od /Oy- /D WIN32 /D _DEBUG /D _WINDOWS /D _UNICODE /D UNICODE /Gm /EHsc /RTC1 /MDd /GS /fp:precise /Zc:wchar_t /Zc:forScope /Fo"DEBUG\\" /Fd"DEBUG\VC120.PDB" /Gd /TP /analyze- C:\USERS\GALIT.DESKTOP-0KJ3ODL\DOCUMENTS\PROJECTS\AGP\AGP\COMMON\GEOMETRYGENERATOR.CPP
^C:\USERS\GALIT.DESKTOP-0KJ3ODL\DOCUMENTS\PROJECTS\AGP\AGP\COMMON\LIGHTHELPER.CPP
/c /ZI /nologo /W3 /WX- /Od /Oy- /D WIN32 /D _DEBUG /D _WINDOWS /D _UNICODE /D UNICODE /Gm /EHsc /RTC1 /MDd /GS /fp:precise /Zc:wchar_t /Zc:forScope /Fo"DEBUG\\" /Fd"DEBUG\VC120.PDB" /Gd /TP /analyze- C:\USERS\GALIT.DESKTOP-0KJ3ODL\DOCUMENTS\PROJECTS\AGP\AGP\COMMON\LIGHTHELPER.CPP
^C:\USERS\GALIT.DESKTOP-0KJ3ODL\DOCUMENTS\PROJECTS\AGP\AGP\COMMON\MATHHELPER.CPP
/c /ZI /nologo /W3 /WX- /Od /Oy- /D WIN32 /D _DEBUG /D _WINDOWS /D _UNICODE /D UNICODE /Gm /EHsc /RTC1 /MDd /GS /fp:precise /Zc:wchar_t /Zc:forScope /Fo"DEBUG\\" /Fd"DEBUG\VC120.PDB" /Gd /TP /analyze- C:\USERS\GALIT.DESKTOP-0KJ3ODL\DOCUMENTS\PROJECTS\AGP\AGP\COMMON\MATHHELPER.CPP
^C:\USERS\GALIT.DESKTOP-0KJ3ODL\DOCUMENTS\PROJECTS\AGP\AGP\COMMON\WAVES.CPP
/c /ZI /nologo /W3 /WX- /Od /Oy- /D WIN32 /D _DEBUG /D _WINDOWS /D _UNICODE /D UNICODE /Gm /EHsc /RTC1 /MDd /GS /fp:precise /Zc:wchar_t /Zc:forScope /Fo"DEBUG\\" /Fd"DEBUG\VC120.PDB" /Gd /TP /analyze- C:\USERS\GALIT.DESKTOP-0KJ3ODL\DOCUMENTS\PROJECTS\AGP\AGP\COMMON\WAVES.CPP
^C:\USERS\GALIT.DESKTOP-0KJ3ODL\DOCUMENTS\PROJECTS\AGP\AGP\CHAPTER 10 STENCILING\MIRROR\SHADING.CPP
/c /ZI /nologo /W3 /WX- /Od /Oy- /D WIN32 /D _DEBUG /D _WINDOWS /D _UNICODE /D UNICODE /Gm /EHsc /RTC1 /MDd /GS /fp:precise /Zc:wchar_t /Zc:forScope /Fo"DEBUG\\" /Fd"DEBUG\VC120.PDB" /Gd /TP /analyze- C:\USERS\GALIT.DESKTOP-0KJ3ODL\DOCUMENTS\PROJECTS\AGP\AGP\CHAPTER 10 STENCILING\MIRROR\SHADING.CPP
^C:\USERS\GALIT.DESKTOP-0KJ3ODL\DOCUMENTS\PROJECTS\AGP\AGP\CHAPTER 10 STENCILING\MIRROR\QUAD.CPP
/c /ZI /nologo /W3 /WX- /Od /Oy- /D WIN32 /D _DEBUG /D _WINDOWS /D _UNICODE /D UNICODE /Gm /EHsc /RTC1 /MDd /GS /fp:precise /Zc:wchar_t /Zc:forScope /Fo"DEBUG\\" /Fd"DEBUG\VC120.PDB" /Gd /TP /analyze- C:\USERS\GALIT.DESKTOP-0KJ3ODL\DOCUMENTS\PROJECTS\AGP\AGP\CHAPTER 10 STENCILING\MIRROR\QUAD.CPP
^C:\USERS\GALIT.DESKTOP-0KJ3ODL\DOCUMENTS\PROJECTS\AGP\AGP\CHAPTER 10 STENCILING\MIRROR\MAIN.CPP
/c /ZI /nologo /W3 /WX- /Od /Oy- /D WIN32 /D _DEBUG /D _WINDOWS /D _UNICODE /D UNICODE /Gm /EHsc /RTC1 /MDd /GS /fp:precise /Zc:wchar_t /Zc:forScope /Fo"DEBUG\\" /Fd"DEBUG\VC120.PDB" /Gd /TP /analyze- C:\USERS\GALIT.DESKTOP-0KJ3ODL\DOCUMENTS\PROJECTS\AGP\AGP\CHAPTER 10 STENCILING\MIRROR\MAIN.CPP
