^C:\USERS\GALIT.DESKTOP-0KJ3ODL\DOWNLOADS\VISUAL STUDIO\LUNACH1_10\CHAPTER 7 LIGHTING\LITSKULL\DEBUG\D3DAPP.OBJ|C:\USERS\GALIT.DESKTOP-0KJ3ODL\DOWNLOADS\VISUAL STUDIO\LUNACH1_10\CHAPTER 7 LIGHTING\LITSKULL\DEBUG\D3DUTIL.OBJ|C:\USERS\GALIT.DESKTOP-0KJ3ODL\DOWNLOADS\VISUAL STUDIO\LUNACH1_10\CHAPTER 7 LIGHTING\LITSKULL\DEBUG\EFFECTS.OBJ|C:\USERS\GALIT.DESKTOP-0KJ3ODL\DOWNLOADS\VISUAL STUDIO\LUNACH1_10\CHAPTER 7 LIGHTING\LITSKULL\DEBUG\GAMETIMER.OBJ|C:\USERS\GALIT.DESKTOP-0KJ3ODL\DOWNLOADS\VISUAL STUDIO\LUNACH1_10\CHAPTER 7 LIGHTING\LITSKULL\DEBUG\GEOMETRYGENERATOR.OBJ|C:\USERS\GALIT.DESKTOP-0KJ3ODL\DOWNLOADS\VISUAL STUDIO\LUNACH1_10\CHAPTER 7 LIGHTING\LITSKULL\DEBUG\LIGHTHELPER.OBJ|C:\USERS\GALIT.DESKTOP-0KJ3ODL\DOWNLOADS\VISUAL STUDIO\LUNACH1_10\CHAPTER 7 LIGHTING\LITSKULL\DEBUG\LITSKULLDEMO.OBJ|C:\USERS\GALIT.DESKTOP-0KJ3ODL\DOWNLOADS\VISUAL STUDIO\LUNACH1_10\CHAPTER 7 LIGHTING\LITSKULL\DEBUG\MATHHELPER.OBJ|C:\USERS\GALIT.DESKTOP-0KJ3ODL\DOWNLOADS\VISUAL STUDIO\LUNACH1_10\CHAPTER 7 LIGHTING\LITSKULL\DEBUG\VERTEX.OBJ|C:\USERS\GALIT.DESKTOP-0KJ3ODL\DOWNLOADS\VISUAL STUDIO\LUNACH1_10\CHAPTER 7 LIGHTING\LITSKULL\DEBUG\WAVES.OBJ
C:\USERS\GALIT.DESKTOP-0KJ3ODL\DOWNLOADS\VISUAL STUDIO\LUNACH1_10\DEBUG\CHAPTER 07 LITSKULL.ILK
C:\USERS\GALIT.DESKTOP-0KJ3ODL\DOWNLOADS\VISUAL STUDIO\LUNACH1_10\DEBUG\CHAPTER 07 LITSKULL.EXE
C:\USERS\GALIT.DESKTOP-0KJ3ODL\DOWNLOADS\VISUAL STUDIO\LUNACH1_10\DEBUG\CHAPTER 07 LITSKULL.PDB
